\relax 
\providecommand\hyper@newdestlabel[2]{}
\providecommand\HyperFirstAtBeginDocument{\AtBeginDocument}
\HyperFirstAtBeginDocument{\ifx\hyper@anchor\@undefined
\global\let\oldcontentsline\contentsline
\gdef\contentsline#1#2#3#4{\oldcontentsline{#1}{#2}{#3}}
\global\let\oldnewlabel\newlabel
\gdef\newlabel#1#2{\newlabelxx{#1}#2}
\gdef\newlabelxx#1#2#3#4#5#6{\oldnewlabel{#1}{{#2}{#3}}}
\AtEndDocument{\ifx\hyper@anchor\@undefined
\let\contentsline\oldcontentsline
\let\newlabel\oldnewlabel
\fi}
\fi}
\global\let\hyper@last\relax 
\gdef\HyperFirstAtBeginDocument#1{#1}
\providecommand\HyField@AuxAddToFields[1]{}
\providecommand\HyField@AuxAddToCoFields[2]{}
\select@language{english}
\@writefile{toc}{\select@language{english}}
\@writefile{lof}{\select@language{english}}
\@writefile{lot}{\select@language{english}}
\@writefile{toc}{\contentsline {section}{\numberline {1}MOOC presentation}{1}{section.1}}
\newlabel{sec:MOOC}{{1}{1}{MOOC presentation}{section.1}{}}
\@writefile{toc}{\contentsline {subsection}{\numberline {1.1}Course introduction}{1}{subsection.1.1}}
\@writefile{toc}{\contentsline {subsubsection}{\numberline {1.1.1}Teacher}{1}{subsubsection.1.1.1}}
\@writefile{lof}{\contentsline {figure}{\numberline {1}{\ignorespaces Dr. T, from University of Colorado\relax }}{1}{figure.caption.2}}
\@writefile{toc}{\contentsline {subsubsection}{\numberline {1.1.2}Learning objectives}{1}{subsubsection.1.1.2}}
\@writefile{toc}{\contentsline {subsubsection}{\numberline {1.1.3}Course structure}{2}{subsubsection.1.1.3}}
\@writefile{lof}{\contentsline {figure}{\numberline {2}{\ignorespaces A new material week\relax }}{2}{figure.caption.3}}
\@writefile{toc}{\contentsline {paragraph}{Course project\\}{2}{section*.4}}
\@writefile{toc}{\contentsline {subsection}{\numberline {1.2}MOOC validation}{3}{subsection.1.2}}
\@writefile{toc}{\contentsline {subsubsection}{\numberline {1.2.1}Monitoring}{3}{subsubsection.1.2.1}}
\@writefile{lof}{\contentsline {figure}{\numberline {3}{\ignorespaces MOOC monitoring\relax }}{3}{figure.caption.5}}
\@writefile{toc}{\contentsline {subsubsection}{\numberline {1.2.2}Final grade}{3}{subsubsection.1.2.2}}
\@writefile{lof}{\contentsline {figure}{\numberline {4}{\ignorespaces My final grade after completing the course\relax }}{3}{figure.caption.6}}
\@writefile{toc}{\contentsline {section}{\numberline {2}Modules}{4}{section.2}}
\newlabel{sec:Modules}{{2}{4}{Modules}{section.2}{}}
\@writefile{toc}{\contentsline {subsection}{\numberline {2.1}Module 1 : Introduction}{4}{subsection.2.1}}
\@writefile{toc}{\contentsline {subsection}{\numberline {2.2}Module 2 : First C\# Program}{5}{subsection.2.2}}
\@writefile{toc}{\contentsline {subsubsection}{\numberline {2.2.1}Executing our code}{5}{subsubsection.2.2.1}}
\@writefile{toc}{\contentsline {subsubsection}{\numberline {2.2.2}Comments}{5}{subsubsection.2.2.2}}
\@writefile{toc}{\contentsline {paragraph}{Documentation comments\\}{5}{section*.7}}
\@writefile{lof}{\contentsline {figure}{\numberline {5}{\ignorespaces Documentation comments, here at the top of a method\relax }}{5}{figure.caption.8}}
\@writefile{toc}{\contentsline {paragraph}{Line comments\\}{5}{section*.9}}
\@writefile{toc}{\contentsline {subsubsection}{\numberline {2.2.3}Coding standards}{6}{subsubsection.2.2.3}}
\@writefile{toc}{\contentsline {subsection}{\numberline {2.3}Module 3 : Data Types, Variables, and Constants}{7}{subsection.2.3}}
\@writefile{toc}{\contentsline {subsection}{\numberline {2.4}Module 4 : Classes and Objects}{7}{subsection.2.4}}
\@writefile{toc}{\contentsline {subsection}{\numberline {2.5}Module 5 : XNA Basics}{8}{subsection.2.5}}
\@writefile{toc}{\contentsline {subsubsection}{\numberline {2.5.1}General ideas for game development}{8}{subsubsection.2.5.1}}
\@writefile{lof}{\contentsline {figure}{\numberline {6}{\ignorespaces The XNA Game Loop\relax }}{8}{figure.caption.10}}
\@writefile{toc}{\contentsline {subsubsection}{\numberline {2.5.2}XNA for game development}{9}{subsubsection.2.5.2}}
\@writefile{lof}{\contentsline {figure}{\numberline {7}{\ignorespaces \texttt  {Game1} class created by MonoGame\relax }}{9}{figure.caption.11}}
\@writefile{lof}{\contentsline {figure}{\numberline {8}{\ignorespaces \texttt  {Update} method, generated by MonoGame\relax }}{9}{figure.caption.12}}
\@writefile{toc}{\contentsline {subsubsection}{\numberline {2.5.3}Simple drawing example}{10}{subsubsection.2.5.3}}
\newlabel{sec:DrawingExample}{{2.5.3}{10}{Simple drawing example}{subsubsection.2.5.3}{}}
\@writefile{toc}{\contentsline {subsection}{\numberline {2.6}Module 6 : Strings}{11}{subsection.2.6}}
\@writefile{toc}{\contentsline {subsection}{\numberline {2.7}Module 7 : Selection}{12}{subsection.2.7}}
\@writefile{toc}{\contentsline {subsection}{\numberline {2.8}Module 8 : XNA Mice and Controllers}{13}{subsection.2.8}}
\@writefile{toc}{\contentsline {subsubsection}{\numberline {2.8.1}Mouse location processing}{13}{subsubsection.2.8.1}}
\@writefile{toc}{\contentsline {subsubsection}{\numberline {2.8.2}Mouse button processing}{14}{subsubsection.2.8.2}}
\newlabel{sec:MouseButton}{{2.8.2}{14}{Mouse button processing}{subsubsection.2.8.2}{}}
\@writefile{toc}{\contentsline {paragraph}{The \texttt  {Random} class\\}{14}{section*.23}}
\@writefile{toc}{\contentsline {paragraph}{Checking if a button is pressed\\}{14}{section*.24}}
\@writefile{toc}{\contentsline {paragraph}{Processing a click\\}{14}{section*.25}}
\@writefile{toc}{\contentsline {subsubsection}{\numberline {2.8.3}Controller thumbstick and button processing}{15}{subsubsection.2.8.3}}
\@writefile{toc}{\contentsline {subsection}{\numberline {2.9}Module 9 : Arrays and Collection Classes}{16}{subsection.2.9}}
\@writefile{toc}{\contentsline {subsubsection}{\numberline {2.9.1}Arrays}{16}{subsubsection.2.9.1}}
\@writefile{toc}{\contentsline {subsubsection}{\numberline {2.9.2}Collection classes}{17}{subsubsection.2.9.2}}
\@writefile{toc}{\contentsline {subsection}{\numberline {2.10}Module 10 : Iteration}{18}{subsection.2.10}}
\@writefile{toc}{\contentsline {subsubsection}{\numberline {2.10.1}For Loops}{18}{subsubsection.2.10.1}}
\@writefile{toc}{\contentsline {paragraph}{Example using a for loop\\}{18}{section*.32}}
\@writefile{toc}{\contentsline {paragraph}{For loop and \texttt  {Remove} method\\}{19}{section*.36}}
\@writefile{toc}{\contentsline {subsubsection}{\numberline {2.10.2}Foreach loops}{20}{subsubsection.2.10.2}}
\@writefile{toc}{\contentsline {subsubsection}{\numberline {2.10.3}While loops}{20}{subsubsection.2.10.3}}
\@writefile{toc}{\contentsline {subsection}{\numberline {2.11}Module 11 : Class Design and Implementation}{21}{subsection.2.11}}
\@writefile{toc}{\contentsline {subsection}{\numberline {2.12}Module 12 : XNA Audio}{22}{subsection.2.12}}
\@writefile{toc}{\contentsline {paragraph}{Playing a sound effect\\}{22}{section*.41}}
\@writefile{toc}{\contentsline {paragraph}{Playing a background music\\}{22}{section*.45}}
\@writefile{toc}{\contentsline {subsection}{\numberline {2.13}Module 13 : XNA Text IO}{23}{subsection.2.13}}
\@writefile{toc}{\contentsline {subsubsection}{\numberline {2.13.1}XNA keyboard input}{23}{subsubsection.2.13.1}}
\@writefile{toc}{\contentsline {subsubsection}{\numberline {2.13.2}XNA text output}{25}{subsubsection.2.13.2}}
\@writefile{toc}{\contentsline {section}{\numberline {3}MOOC project}{26}{section.3}}
\@writefile{toc}{\contentsline {paragraph}{Project increment 1\\}{26}{section*.52}}
\@writefile{toc}{\contentsline {paragraph}{Project increment 2\\}{27}{section*.54}}
\@writefile{toc}{\contentsline {paragraph}{Project increment 3\\}{28}{section*.56}}
\@writefile{toc}{\contentsline {paragraph}{Project increment 4\\}{30}{section*.59}}
\@writefile{toc}{\contentsline {paragraph}{Project increment 5\\}{31}{section*.61}}
\@writefile{toc}{\contentsline {section}{\numberline {4}Personal project}{32}{section.4}}
\@writefile{toc}{\contentsline {subsection}{\numberline {4.1}Introduction}{32}{subsection.4.1}}
\@writefile{toc}{\contentsline {subsection}{\numberline {4.2}Development}{33}{subsection.4.2}}
\@writefile{toc}{\contentsline {subsubsection}{\numberline {4.2.1}World map}{33}{subsubsection.4.2.1}}
\@writefile{toc}{\contentsline {subsubsection}{\numberline {4.2.2}Player : Pacman}{36}{subsubsection.4.2.2}}
\@writefile{toc}{\contentsline {paragraph}{Move Pacman\\}{36}{section*.70}}
\@writefile{toc}{\contentsline {paragraph}{Sprite animations\\}{38}{section*.73}}
\@writefile{toc}{\contentsline {paragraph}{Player's score and lives\\}{39}{section*.77}}
\@writefile{toc}{\contentsline {subsubsection}{\numberline {4.2.3}Ghosts}{40}{subsubsection.4.2.3}}
\@writefile{toc}{\contentsline {paragraph}{Move Ghosts\\}{40}{section*.79}}
\@writefile{toc}{\contentsline {paragraph}{Sprite animations\\}{40}{section*.80}}
\@writefile{toc}{\contentsline {subsubsection}{\numberline {4.2.4}Collision between Pacman and ghosts}{41}{subsubsection.4.2.4}}
\@writefile{toc}{\contentsline {subsubsection}{\numberline {4.2.5}End of the game}{41}{subsubsection.4.2.5}}
\@writefile{toc}{\contentsline {subsubsection}{\numberline {4.2.6}Music}{42}{subsubsection.4.2.6}}
\@writefile{toc}{\contentsline {section}{\numberline {5}Conclusion}{43}{section.5}}
